info face="VLOBJ" size=64 bold=0 italic=0 charset="" unicode=0 stretchH=100 smooth=1 aa=1 padding=0,0,0,0 spacing=1,1
common lineHeight=68 base=59 scaleW=1024 scaleH=1024 pages=1 packed=0
page id=0 file="future2.png"
chars count=93
char id=32   x=0     y=0     width=0     height=0     xoffset=0     yoffset=59    xadvance=18     page=0  chnl=0 
char id=36   x=0     y=0     width=66     height=91     xoffset=-15     yoffset=-10    xadvance=41     page=0  chnl=0 
char id=125   x=66     y=0     width=53     height=91     xoffset=-15     yoffset=-10    xadvance=25     page=0  chnl=0 
char id=123   x=119     y=0     width=53     height=91     xoffset=-15     yoffset=-10    xadvance=25     page=0  chnl=0 
char id=91   x=172     y=0     width=42     height=91     xoffset=-15     yoffset=-10    xadvance=14     page=0  chnl=0 
char id=41   x=214     y=0     width=47     height=91     xoffset=-15     yoffset=-10    xadvance=19     page=0  chnl=0 
char id=40   x=261     y=0     width=47     height=91     xoffset=-15     yoffset=-10    xadvance=19     page=0  chnl=0 
char id=93   x=308     y=0     width=42     height=90     xoffset=-15     yoffset=-10    xadvance=14     page=0  chnl=0 
char id=106   x=350     y=0     width=61     height=90     xoffset=-21     yoffset=0    xadvance=25     page=0  chnl=0 
char id=81   x=411     y=0     width=66     height=85     xoffset=-15     yoffset=-3    xadvance=41     page=0  chnl=0 
char id=121   x=477     y=0     width=60     height=81     xoffset=-15     yoffset=9    xadvance=35     page=0  chnl=0 
char id=113   x=537     y=0     width=66     height=81     xoffset=-15     yoffset=9    xadvance=41     page=0  chnl=0 
char id=112   x=603     y=0     width=66     height=81     xoffset=-15     yoffset=9    xadvance=41     page=0  chnl=0 
char id=103   x=669     y=0     width=66     height=81     xoffset=-15     yoffset=9    xadvance=41     page=0  chnl=0 
char id=64   x=735     y=0     width=83     height=79     xoffset=-15     yoffset=3    xadvance=58     page=0  chnl=0 
char id=63   x=818     y=0     width=60     height=79     xoffset=-15     yoffset=-4    xadvance=34     page=0  chnl=0 
char id=48   x=878     y=0     width=66     height=79     xoffset=-15     yoffset=-4    xadvance=41     page=0  chnl=0 
char id=57   x=944     y=0     width=67     height=79     xoffset=-16     yoffset=-3    xadvance=41     page=0  chnl=0 
char id=51   x=0     y=91     width=67     height=79     xoffset=-16     yoffset=-3    xadvance=41     page=0  chnl=0 
char id=116   x=67     y=91     width=64     height=79     xoffset=-19     yoffset=-3    xadvance=30     page=0  chnl=0 
char id=108   x=131     y=91     width=50     height=79     xoffset=-15     yoffset=-4    xadvance=22     page=0  chnl=0 
char id=107   x=181     y=91     width=58     height=79     xoffset=-15     yoffset=-3    xadvance=31     page=0  chnl=0 
char id=104   x=239     y=91     width=66     height=79     xoffset=-15     yoffset=-3    xadvance=41     page=0  chnl=0 
char id=90   x=305     y=91     width=66     height=79     xoffset=-15     yoffset=-3    xadvance=41     page=0  chnl=0 
char id=84   x=371     y=91     width=66     height=79     xoffset=-15     yoffset=-3    xadvance=38     page=0  chnl=0 
char id=79   x=437     y=91     width=66     height=79     xoffset=-15     yoffset=-4    xadvance=41     page=0  chnl=0 
char id=77   x=503     y=91     width=75     height=79     xoffset=-16     yoffset=-3    xadvance=48     page=0  chnl=0 
char id=75   x=578     y=91     width=66     height=79     xoffset=-15     yoffset=-4    xadvance=41     page=0  chnl=0 
char id=73   x=644     y=91     width=35     height=79     xoffset=-15     yoffset=-3    xadvance=9     page=0  chnl=0 
char id=72   x=679     y=91     width=66     height=79     xoffset=-15     yoffset=-3    xadvance=41     page=0  chnl=0 
char id=71   x=745     y=91     width=66     height=79     xoffset=-15     yoffset=-4    xadvance=41     page=0  chnl=0 
char id=70   x=811     y=91     width=66     height=79     xoffset=-15     yoffset=-4    xadvance=38     page=0  chnl=0 
char id=69   x=877     y=91     width=66     height=79     xoffset=-15     yoffset=-4    xadvance=41     page=0  chnl=0 
char id=67   x=943     y=91     width=66     height=79     xoffset=-15     yoffset=-4    xadvance=41     page=0  chnl=0 
char id=38   x=0     y=170     width=66     height=78     xoffset=-15     yoffset=-3    xadvance=41     page=0  chnl=0 
char id=92   x=66     y=170     width=52     height=78     xoffset=-16     yoffset=-3    xadvance=22     page=0  chnl=0 
char id=47   x=118     y=170     width=52     height=78     xoffset=-16     yoffset=-3    xadvance=22     page=0  chnl=0 
char id=33   x=170     y=170     width=36     height=78     xoffset=-15     yoffset=-3    xadvance=9     page=0  chnl=0 
char id=56   x=206     y=170     width=66     height=78     xoffset=-15     yoffset=-3    xadvance=41     page=0  chnl=0 
char id=55   x=272     y=170     width=66     height=78     xoffset=-15     yoffset=-3    xadvance=41     page=0  chnl=0 
char id=54   x=338     y=170     width=66     height=78     xoffset=-15     yoffset=-3    xadvance=41     page=0  chnl=0 
char id=53   x=404     y=170     width=66     height=78     xoffset=-15     yoffset=-3    xadvance=41     page=0  chnl=0 
char id=52   x=470     y=170     width=67     height=78     xoffset=-16     yoffset=-3    xadvance=41     page=0  chnl=0 
char id=50   x=537     y=170     width=66     height=78     xoffset=-15     yoffset=-3    xadvance=41     page=0  chnl=0 
char id=49   x=603     y=170     width=53     height=78     xoffset=-15     yoffset=-3    xadvance=28     page=0  chnl=0 
char id=102   x=656     y=170     width=65     height=78     xoffset=-15     yoffset=-3    xadvance=31     page=0  chnl=0 
char id=100   x=721     y=170     width=66     height=78     xoffset=-15     yoffset=-3    xadvance=41     page=0  chnl=0 
char id=98   x=787     y=170     width=66     height=78     xoffset=-15     yoffset=-3    xadvance=41     page=0  chnl=0 
char id=89   x=853     y=170     width=66     height=78     xoffset=-15     yoffset=-3    xadvance=41     page=0  chnl=0 
char id=88   x=919     y=170     width=68     height=78     xoffset=-15     yoffset=-3    xadvance=41     page=0  chnl=0 
char id=87   x=0     y=248     width=74     height=78     xoffset=-15     yoffset=-3    xadvance=48     page=0  chnl=0 
char id=86   x=74     y=248     width=66     height=78     xoffset=-15     yoffset=-3    xadvance=41     page=0  chnl=0 
char id=85   x=140     y=248     width=66     height=78     xoffset=-15     yoffset=-3    xadvance=41     page=0  chnl=0 
char id=83   x=206     y=248     width=66     height=78     xoffset=-15     yoffset=-3    xadvance=41     page=0  chnl=0 
char id=82   x=272     y=248     width=66     height=78     xoffset=-15     yoffset=-3    xadvance=41     page=0  chnl=0 
char id=80   x=338     y=248     width=66     height=78     xoffset=-15     yoffset=-3    xadvance=41     page=0  chnl=0 
char id=78   x=404     y=248     width=66     height=78     xoffset=-15     yoffset=-3    xadvance=41     page=0  chnl=0 
char id=76   x=470     y=248     width=66     height=78     xoffset=-15     yoffset=-3    xadvance=38     page=0  chnl=0 
char id=74   x=536     y=248     width=66     height=78     xoffset=-15     yoffset=-3    xadvance=41     page=0  chnl=0 
char id=68   x=602     y=248     width=66     height=78     xoffset=-15     yoffset=-3    xadvance=41     page=0  chnl=0 
char id=66   x=668     y=248     width=66     height=78     xoffset=-15     yoffset=-3    xadvance=41     page=0  chnl=0 
char id=65   x=734     y=248     width=66     height=78     xoffset=-15     yoffset=-3    xadvance=41     page=0  chnl=0 
char id=105   x=800     y=248     width=35     height=75     xoffset=-15     yoffset=0    xadvance=9     page=0  chnl=0 
char id=127   x=835     y=248     width=63     height=71     xoffset=-7     yoffset=4    xadvance=48     page=0  chnl=0 
char id=118   x=898     y=248     width=67     height=67     xoffset=-16     yoffset=9    xadvance=41     page=0  chnl=0 
char id=110   x=0     y=326     width=66     height=67     xoffset=-15     yoffset=9    xadvance=41     page=0  chnl=0 
char id=109   x=66     y=326     width=73     height=67     xoffset=-16     yoffset=9    xadvance=47     page=0  chnl=0 
char id=35   x=139     y=326     width=53     height=66     xoffset=-15     yoffset=9    xadvance=28     page=0  chnl=0 
char id=59   x=192     y=326     width=43     height=66     xoffset=-19     yoffset=15    xadvance=11     page=0  chnl=0 
char id=122   x=235     y=326     width=67     height=66     xoffset=-16     yoffset=9    xadvance=39     page=0  chnl=0 
char id=120   x=302     y=326     width=66     height=66     xoffset=-15     yoffset=9    xadvance=39     page=0  chnl=0 
char id=119   x=368     y=326     width=72     height=66     xoffset=-15     yoffset=9    xadvance=47     page=0  chnl=0 
char id=117   x=440     y=326     width=66     height=66     xoffset=-15     yoffset=9    xadvance=41     page=0  chnl=0 
char id=115   x=506     y=326     width=66     height=66     xoffset=-15     yoffset=9    xadvance=41     page=0  chnl=0 
char id=114   x=572     y=326     width=66     height=66     xoffset=-15     yoffset=9    xadvance=38     page=0  chnl=0 
char id=111   x=638     y=326     width=66     height=66     xoffset=-15     yoffset=9    xadvance=41     page=0  chnl=0 
char id=101   x=704     y=326     width=66     height=66     xoffset=-15     yoffset=9    xadvance=41     page=0  chnl=0 
char id=99   x=770     y=326     width=66     height=66     xoffset=-15     yoffset=9    xadvance=41     page=0  chnl=0 
char id=97   x=836     y=326     width=67     height=66     xoffset=-16     yoffset=9    xadvance=41     page=0  chnl=0 
char id=37   x=903     y=326     width=54     height=63     xoffset=-16     yoffset=12    xadvance=28     page=0  chnl=0 
char id=62   x=957     y=326     width=47     height=54     xoffset=-15     yoffset=12    xadvance=22     page=0  chnl=0 
char id=60   x=0     y=393     width=48     height=54     xoffset=-16     yoffset=12    xadvance=22     page=0  chnl=0 
char id=58   x=48     y=393     width=36     height=51     xoffset=-15     yoffset=15    xadvance=11     page=0  chnl=0 
char id=43   x=84     y=393     width=47     height=48     xoffset=-15     yoffset=15    xadvance=22     page=0  chnl=0 
char id=61   x=131     y=393     width=47     height=43     xoffset=-15     yoffset=19    xadvance=22     page=0  chnl=0 
char id=44   x=178     y=393     width=44     height=42     xoffset=-20     yoffset=39    xadvance=6     page=0  chnl=0 
char id=39   x=222     y=393     width=40     height=42     xoffset=-16     yoffset=-8    xadvance=9     page=0  chnl=0 
char id=34   x=262     y=393     width=46     height=42     xoffset=-16     yoffset=-8    xadvance=16     page=0  chnl=0 
char id=126   x=308     y=393     width=47     height=41     xoffset=-15     yoffset=-3    xadvance=19     page=0  chnl=0 
char id=94   x=355     y=393     width=45     height=41     xoffset=-15     yoffset=-3    xadvance=16     page=0  chnl=0 
char id=96   x=400     y=393     width=41     height=41     xoffset=-15     yoffset=-3    xadvance=13     page=0  chnl=0 
char id=46   x=441     y=393     width=36     height=37     xoffset=-15     yoffset=39    xadvance=8     page=0  chnl=0 
char id=95   x=477     y=393     width=53     height=35     xoffset=-15     yoffset=40    xadvance=28     page=0  chnl=0 
char id=45   x=530     y=393     width=47     height=35     xoffset=-15     yoffset=22    xadvance=22     page=0  chnl=0 
kernings count=3
kerning first=108  second=116  amount=-3
kerning first=102  second=105  amount=3
kerning first=102  second=108  amount=5
kerning first=102  second=114  amount=3
